<?xml version="1.0" encoding="UTF-8"?>
<!-- Generator: Adobe Illustrator 19.0.0, SVG Export Plug-In . SVG Version: 6.00 Build 0)  -->
<svg version="1.1" id="battle-slots" xmlns="http://www.w3.org/2000/svg" xmlns:xlink="http://www.w3.org/1999/xlink" x="0px" y="0px" viewBox="0 0 2000 2000" style="enable-background:new 0 0 2000 2000;" xml:space="preserve">
<style type="text/css">
	.st0{fill:#564532;}
	.st1{fill:#62A8D9;}
	.st2{fill:#7DB8E2;}
	.st3{fill:#957957;}
	.st4{fill:#6B573E;}
	.st5{fill:#4B3822;}
	.st6{fill:#C4DFF3;}
	.st7{fill:#B5D8F1;}
	.st8{fill:#B39A7C;}
</style>
<g id="XMLID_1_">
	
		<rect id="XMLID_14_" x="1568.9" y="1545.7" transform="matrix(0.7071 -0.7071 0.7071 0.7071 -702.2402 1698.1536)" class="st0" width="259.7" height="302.2"/>
	<path id="XMLID_13_" class="st1" d="M17.9,16C30.5,3.4,48.4-2.3,66,0.8l363.3,64.1c45,7.9,86,30.8,116.3,64.9l1023,1144.1   c-50.2,50.2-100.5,100.5-150.7,150.7L13.8,20.6C15.1,19,16.5,17.4,17.9,16z"/>
	<path id="XMLID_12_" class="st2" d="M131.8,543.6c-34.1-30.4-57-71.4-64.9-116.3L2.8,64C0,48.5,4.2,32.8,13.8,20.6l1404.1,1404.1   c-48,48-96,96-144,144L131.8,543.6z"/>
	<path id="XMLID_11_" class="st3" d="M1270.9,1557.1l288.2-288.2c49.2-43.8,124.6-42.2,171.7,5c48.9,48.9,48.9,128.1,0,177   l-277.9,277.9c-24.4,24.4-56.5,36.7-88.5,36.7c-32,0-64.1-12.2-88.5-36.7C1228.7,1681.7,1227,1606.3,1270.9,1557.1z"/>
	<path id="XMLID_10_" class="st4" d="M1690.8,1871.1l178.3-178.3c30.4-27.1,77.1-26.1,106.3,3.1c30.2,30.2,30.2,79.3,0,109.5   l-172,172c-15.1,15.1-34.9,22.7-54.8,22.7c-19.8,0-39.6-7.6-54.8-22.7C1664.7,1948.1,1663.7,1901.5,1690.8,1871.1z"/>
	<polygon id="XMLID_9_" class="st1" points="1076.2,1390.7 877.2,1212.3 1211.6,876.8 1391.1,1075.8  "/>
	
		<rect id="XMLID_8_" x="171.5" y="1545.7" transform="matrix(-0.7071 -0.7071 0.7071 -0.7071 -685.3961 3109.605)" class="st0" width="259.7" height="302.2"/>
	<g>
		<path id="XMLID_7_" class="st5" d="M445.1,1736.6l54.9-54.9l-183.7-183.7l-54.9,54.9C322.6,1614.2,383.9,1675.4,445.1,1736.6z"/>
		<path id="XMLID_6_" class="st5" d="M1554.3,1736.6l-54.9-54.9l183.7-183.7l54.9,54.9C1676.7,1614.2,1615.5,1675.4,1554.3,1736.6z"/>
	</g>
	<path id="XMLID_5_" class="st6" d="M1982.1,16c-12.6-12.6-30.5-18.2-48.1-15.1l-363.3,64.1c-45,7.9-86,30.8-116.3,64.9L431.4,1274   c50.2,50.2,100.5,100.5,150.7,150.7L1986.2,20.6C1984.9,19,1983.5,17.4,1982.1,16z"/>
	<path id="XMLID_4_" class="st7" d="M1868.2,543.6c34.1-30.4,57-71.4,64.9-116.3L1997.2,64c2.7-15.5-1.4-31.3-11.1-43.4   L582.1,1424.7c48,48,96,96,144,144L1868.2,543.6z"/>
	<path id="XMLID_3_" class="st8" d="M729.2,1557.1l-288.2-288.2c-49.2-43.8-124.6-42.2-171.7,5c-48.9,48.9-48.9,128.1,0,177   l277.9,277.9c24.4,24.4,56.5,36.7,88.5,36.7c32,0,64.1-12.2,88.5-36.7C771.3,1681.7,773,1606.3,729.2,1557.1z"/>
	<path id="XMLID_2_" class="st4" d="M309.2,1871.1l-178.3-178.3c-30.4-27.1-77.1-26.1-106.3,3.1c-30.2,30.2-30.2,79.3,0,109.5   l172,172c15.1,15.1,34.9,22.7,54.8,22.7c19.8,0,39.6-7.6,54.8-22.7C335.3,1948.1,336.3,1901.5,309.2,1871.1z"/>
</g>
</svg>